Version #9: 8/7/2020,,,,,,,,,,,,,
"Description: Cities with accessible data (denoted with ""X"") from the datasets listed in the column headings",,,,,,,,,,,,,
City id,City,County,State (Province),Country,Apple,Google,IBM Weather,NYT: All Cause Mortality,US Bureau of Labor Statistics,Realtor.com,Bureau of Economic Analysis,Opportunity Insights,US CDC: Select Demographic Characteristics
BuenosAires_Argentina,BuenosAires,,,Argentina,X,X,,,,,,,
Adelaide_SouthAustralia_Australia,Adelaide,,SouthAustralia,Australia,X,,,,,,,,
Brisbane_Queensland_Australia,Brisbane,,Queensland,Australia,X,,,,,,,,
Melbourne_Victoria_Australia,Melbourne,,Victoria,Australia,X,,,,,,,,
Perth_WesternAustralia_Australia,Perth,,WesternAustralia,Australia,X,,,,,,,,
Sydney_NewSouthWales_Australia,Sydney,,NewSouthWales,Australia,X,,,,,,,,
Graz_Styria_Austria,Graz,,Styria,Austria,X,,,,,,,,
Vienna_Austria,Vienna,,,Austria,X,X,,,,,,,
Antwerp_Flanders_Antwerp_Belgium,Antwerp,Antwerp,Flanders,Belgium,X,,,,,,,,
BeloHorizonte_MinasGerais_Brazil,BeloHorizonte,,MinasGerais,Brazil,X,,,,,,,,
Curitiba_Parana_Brazil,Curitiba,,Parana,Brazil,X,,,,,,,,
Fortaleza_Ceara_Brazil,Fortaleza,,Ceara,Brazil,X,,,X,,,,,
Goiania_Goias_Brazil,Goiania,,Goias,Brazil,X,,,,,,,,
PortoAlegre_RioGrandedoSul_Brazil,PortoAlegre,,RioGrandedoSul,Brazil,X,,,,,,,,
RiodeJaneiro_RiodeJaneiro_Brazil,RiodeJaneiro,,RiodeJaneiro,Brazil,X,,,X,,,,,
SaoPaulo_SaoPaulo_Brazil,SaoPaulo,,SaoPaulo,Brazil,X,,,X,,,,,
Calgary_Alberta_Canada,Calgary,,Alberta,Canada,X,,,,,,,,
Edmonton_Alberta_Canada,Edmonton,,Alberta,Canada,X,,,,,,,,
Halifax_NovaScotia_Canada,Halifax,,Nova Scotia,Canada,X,,,,,,,,
Montreal_Quebec_Canada,Montreal,,Quebec,Canada,X,,,,,,,,
Ottawa_Ontario_Canada,Ottawa,,Ontario,Canada,X,,,,,,,,
Toronto_Ontario_Canada,Toronto,,Ontario,Canada,X,,,,,,,,
Vancouver_BritishColumbia_Canada,Vancouver,,British Columbia,Canada,X,,,,,,,,
Santiago_SantiagoMetropolitanRegion_Chile,Santiago,,SantiagoMetropolitanRegion,Chile,X,,,,,,,,
Copenhagen_CapitalRegionofDenmark_Denmark,Copenhagen,,CapitalRegionofDenmark,Denmark,X,,,,,,,,
Cairo_Egypt,Cairo,,,Egypt,X,,,,,,,,
Helsinki_Uusimaa_Finland,Helsinki,,Uusimaa,Finland,X,,,,,,,,
Bordeaux_Aquitaine_France,Bordeaux,,Aquitaine,France,X,,,,,,,,
Grenoble_Rhone-Alpes_France,Grenoble,,Rhone-Alpes,France,X,,,,,,,,
Lille_Nord-Pas-de-Calais_France,Lille,,Nord-Pas-de-Calais,France,X,,,,,,,,
Lyon_Rhone-Alpes_France,Lyon,,Rhone-Alpes,France,X,,,,,,,,
Marseille_Provence-Alpes-Coted'Azur_France,Marseille,,Provence-Alpes-Coted'Azur,France,X,,,,,,,,
Montpellier_Languedoc-Roussillon_France,Montpellier,,Languedoc-Roussillon,France,X,,,,,,,,
Nantes_PaysdelaLoire_France,Nantes,,PaysdelaLoire,France,X,,,,,,,,
Nice_Provence-Alpes-Coted'Azur_France,Nice,,Provence-Alpes-Coted'AzurRegion,France,X,,,,,,,,
Paris_Ile-de-France_France,Paris,,Ile-de-France,France,X,,X,,,,,,
Rouen_UpperNormandy_France,Rouen,,UpperNormandy,France,X,,,,,,,,
Strasbourg_Alsace_France,Strasbourg,,Alsace,France,X,,,,,,,,
Toulon_Provence-Alpes-Coted'Azur_France,Toulon,,Provence-Alpes-Coted'Azur,France,X,,,,,,,,
Toulouse_Midi-Pyrenees_France,Toulouse,,Midi-Pyrenees,France,X,,,,,,,,
Aachen_NorthRhine-Westphalia_Germany,Aachen,,NorthRhine-Westphalia,Germany,X,,,,,,,,
Augsburg_Bavaria_Germany,Augsburg,,Bavaria,Germany,X,,,,,,,,
Bochum-Dortmund_NorthRhine-Westphalia_Germany,Bochum-Dortmund,,NorthRhine-Westphalia,Germany,X,,,,,,,,
Bremen_Bremen_Germany,Bremen,,Bremen,Germany,X,,,,,,,,
Cologne_NorthRhine-Westphalia_Germany,Cologne,,NorthRhine-Westphalia,Germany,X,,,,,,,,
Dresden_Saxony_Germany,Dresden,,Saxony,Germany,X,,,,,,,,
Dusseldorf_NorthRhine-Westphalia_Germany,Dusseldorf,,NorthRhine-Westphalia,Germany,X,,,,,,,,
Frankfurt_Hesse_Germany,Frankfurt,,Hesse,Germany,X,,,,,,,,
Hannover_LowerSaxony_Germany,Hannover,,LowerSaxony,Germany,X,,,,,,,,
Karlsruhe_Baden-Wurttemberg_Germany,Karlsruhe,,Baden-Wurttemberg,Germany,X,,,,,,,,
Leipzig_Saxony_Germany,Leipzig,,Saxony,Germany,X,,,,,,,,
Liege_Liege_Wallonia_Belgium,Liege,Liege,Liege,Germany,X,,,,,,,,
Mannheim_Baden-Wurttemberg_Germany,Mannheim,,Baden-Wurttemberg,Germany,X,,,,,,,,
Monchengladbach_NorthRhine-Westphalia_Germany,Monchengladbach,,NorthRhine-Westphalia,Germany,X,,,,,,,,
Munich_Bavaria_Germany,Munich,,Bavaria,Germany,X,,,,,,,,
Munster_NorthRhine-Westphalia_Germany,Munster,,NorthRhine-Westphalia,Germany,X,,,,,,,,
Nuremberg_Bavaria_Germany,Nuremberg,,Bavaria,Germany,X,,,,,,,,
Stuttgart_Baden-Wurttemberg_Germany,Stuttgart,,Baden-Wurttemberg,Germany,X,,,,,,,,
Wiesbaden_Hesse_Germany,Wiesbaden,,Hesse,Germany,X,,,,,,,,
Athens_DecentralizedAdministrationofAttica_Greece,Athens,,DecentralizedAdministrationofAttica,Greece,X,,,,,,,,
Bangalore_Karnataka_India,Bangalore,,Karnataka,India,X,,,,,,,,
Chennai_TamilNadu_India,Chennai,,TamilNadu,India,X,,,,,,,,
Delhi_Punjab_India,Delhi,,Punjab,India,X,,,,,,,,
Hyderabad_Telangana_India,Hyderabad,,Telangana,India,X,,,,,,,,
Mumbai_Maharashtra_India,Mumbai,,Maharashtra,India,X,,,,,,,,
Pune_Maharashtra_India,Pune,,Maharashtra,India,X,,,,,,,,
Denpasar_Bali_Indonesia,Denpasar,,Bali,Indonesia,X,,,,,,,,
Jakarta_Jakarta_Indonesia,Jakarta,,Jakarta,Indonesia,X,X,,X,,,,,
Dublin_CountyDublin_Ireland,Dublin,,CountyDublin,Ireland,X,,,,,,,,
TelAviv_TelAvivDistrict_Israel,TelAviv,,TelAvivDistrict,Israel,X,,,,,,,,
Istanbul_Turkey,Istanbul,,,Istanbul,X,,,X,,,,,
Izmir_Turkey,Izmir,,,Izmir,X,,,,,,,,
Fuji_ShizuokaPrefecture_Japan,Fuji,,ShizuokaPrefecture,Japan,X,,,,,,,,
Fukuoka_FukuokaPrefecture_Japan,Fukuoka,,FukuokaPrefecture,Japan,X,,,,,,,,
Hamamatsu_ShizuokaPrefecture_Japan,Hamamatsu,,ShizuokaPrefecture,Japan,X,,,,,,,,
Hiroshima_HiroshimaPrefecture_Japan,Hiroshima,,HiroshimaPrefecture,Japan,X,,,,,,,,
Kagoshima_KagoshimaPrefecture_Japan,Kagoshima,,KagoshimaPrefecture,Japan,X,,,,,,,,
Kanazawa_IshikawaPrefecture_Japan,Kanazawa,,IshikawaPrefecture,Japan,X,,,,,,,,
Kitakyushu_FukuokaPrefecture_Japan,Kitakyushu,,FukuokaPrefecture,Japan,X,,,,,,,,
Kofu_YamanashiPrefecture_Japan,Kofu,,YamanashiPrefecture,Japan,X,,,,,,,,
Kumamoto_KumamotoPrefecture_Japan,Kumamoto,,KumamotoPrefecture,Japan,X,,,,,,,,
Mito_IbarakiPrefecture_Japan,Mito,,IbarakiPrefecture,Japan,X,,,,,,,,
Nagoya_AichiPrefecture_Japan,Nagoya,,AichiPrefecture,Japan,X,,,,,,,,
Naha_OkinawaPrefecture_Japan,Naha,,OkinawaPrefecture,Japan,X,,,,,,,,
Niigata_NiigataPrefecture_Japan,Niigata,,NiigataPrefecture,Japan,X,,,,,,,,
Okayama_OkayamaPrefecture_Japan,Okayama,,OkayamaPrefecture,Japan,X,,,,,,,,
Osaka_OsakaPrefecture_Japan,Osaka,,OsakaPrefecture,Japan,X,,,,,,,,
Otsu_ShigaPrefecture_Japan,Otsu,,ShigaPrefecture,Japan,X,,,,,,,,
Sapporo_HokkaidoPrefecture_Japan,Sapporo,,HokkaidoPrefecture,Japan,X,,,,,,,,
Sendai_MiyagiPrefecture_Japan,Sendai,,MiyagiPrefecture,Japan,X,,,,,,,,
Shizuoka_ShizuokaPrefecture_Japan,Shizuoka,,ShizuokaPrefecture,Japan,X,,,,,,,,
Takamatsu_KagawaPrefecture_Japan,Takamatsu,,KagawaPrefecture,Japan,X,,,,,,,,
Takasaki_GunmaPrefecture_Japan,Takasaki,,GunmaPrefecture,Japan,X,,,,,,,,
Tokyo_TokyoPrefecture_Japan,Tokyo,,TokyoPrefecture,Japan,X,,,,,,,,
Toyama_ToyamaPrefecture_Japan,Toyama,,ToyamaPrefecture,Japan,X,,,,,,,,
Toyohashi_AichiPrefecture_Japan,Toyohashi,,AichiPrefecture,Japan,X,,,,,,,,
Tsukuba_IbarakiPrefecture_Japan,Tsukuba,,IbarakiPrefecture,Japan,X,,,,,,,,
Utsunomiya_TochigiPrefecture_Japan,Utsunomiya,,TochigiPrefecture,Japan,X,,,,,,,,
Yokkaichi_MiePrefecture_Japan,Yokkaichi,,MiePrefecture,Japan,X,,,,,,,,
SeoulCapitalArea_KoreaSouth,SeoulCapitalArea,,,KoreaSouth,X,,,,,,,,
JohorBahru_Johor_Malaysia,JohorBahru,,Johor,Malaysia,X,,,,,,,,
KualaLumpur_Malaysia,KualaLumpur,,,Malaysia,X,,,,,,,,
Guadalajara_Jalisco_Mexico,Guadalajara,,Jalisco,Mexico,X,,,,,,,,
Hermosillo_Sonora_Mexico,Hermosillo,,Sonora,Mexico,X,,,,,,,,
Juarez_Chihuahua_Mexico,Juarez,,Chihuahua,Mexico,X,,,,,,,,
Leon_Guanajuato_Mexico,Leon,,Guanajuato,Mexico,X,,,,,,,,
MexicoCity_Mexico,MexicoCity,,,Mexico,X,X,,,,,,,
Monterrey_NuevoLeon_Mexico,Monterrey,,NuevoLeon,Mexico,X,,,,,,,,
Puebla_Puebla_Mexico,Puebla,,Puebla,Mexico,X,,,,,,,,
Tijuana_BajaCalifornia_Mexico,Tijuana,,BajaCalifornia,Mexico,X,,,,,,,,
Toluca_StateofMexico_Mexico,Toluca,,StateofMexico,Mexico,X,,,,,,,,
Amsterdam_NorthHolland_Netherlands,Amsterdam,,NorthHolland,Netherlands,X,,,,,,,,
Eindhoven_NorthBrabant_Netherlands,Eindhoven,,NorthBrabant,Netherlands,X,,,,,,,,
Rotterdam_SouthHolland_Netherlands,Rotterdam,,SouthHolland,Netherlands,X,,,,,,,,
TheHague_SouthHolland_Netherlands,TheHague,,SouthHolland,Netherlands,X,,,,,,,,
Utrecht_Netherlands,Utrecht,,,Netherlands,X,,,,,,,,
Auckland_Auckland_NewZealand,Auckland,,Auckland,NewZealand,X,,,,,,,,
Oslo_Norway,Oslo,,,Norway,X,X,,X,,,,,
Manila_Philippines,Manila,,,Philippines,X,,,,,,,,
Gdansk_Pomerania_Poland,Gdansk,,Pomerania,Poland,X,,,,,,,,
Katowice_Silesia_Poland,Katowice,,Silesia,Poland,X,,,,,,,,
Krakow_LesserPoland_Poland,Krakow,,LesserPoland,Poland,X,,,,,,,,
Warsaw_Masovia_Poland,Warsaw,,Masovia,Poland,X,,,,,,,,
Krasnodar_KrasnodarKrai_Russia,Krasnodar,,KrasnodarKrai,Russia,X,,,,,,,,
Moscow_Russia,Moscow,,,Russia,X,,,X,,,,,
Rostov-on-Don_RostovOblast_Russia,Rostov-on-Don,,RostovOblast,Russia,X,,,,,,,,
SaintPetersburg_Russia,SaintPetersburg,,,Russia,X,,,,,,,,
CapeTown_WesternCape_SouthAfrica,CapeTown,,WesternCape,SouthAfrica,X,,,,,,,,
Johannesburg_Gauteng_SouthAfrica,Johannesburg,,Gauteng,SouthAfrica,X,,,,,,,,
Barcelona_Catalonia_Spain,Barcelona,,Catalonia,Spain,X,,,,,,,,
Madrid_CommunityofMadrid_Spain,Madrid,,CommunityofMadrid,Spain,X,,,,,,,,
Seville_Andalusia_Spain,Seville,,Andalusia,Spain,X,,,,,,,,
Valencia_ValencianCommunity_Spain,Valencia,,ValencianCommunity,Spain,X,,,,,,,,
Gothenburg_VastraGotalandCounty_Sweden,Gothenburg,,VastraGotalandCounty,Sweden,X,,,,,,,,
Malmo_SkaneCounty_Sweden,Malmo,,SkaneCounty,Sweden,X,,,,,,,,
Stockholm_StockholmCounty_Sweden,Stockholm,,StockholmCounty,Sweden,X,,,,,,,,
Basel_Basel-City_Switzerland,Basel,,Basel-City,Switzerland,X,,,,,,,,
Bern_Bern_Switzerland,Bern,,Bern,Switzerland,X,,,,,,,,
Geneva_Geneva_Switzerland,Geneva,,Geneva,Switzerland,X,,,,,,,,
Lausanne_Vaud_Switzerland,Lausanne,,Vaud,Switzerland,X,,,,,,,,
Zurich_Zurich_Switzerland,Zurich,,Zurich,Switzerland,X,,,,,,,,
Taipei_Taiwan*,Taipei,,,Taiwan,X,,,,,,,,
Bangkok_Thailand,Bangkok,,,Thailand,X,,,,,,,,
Bursa_Turkey,Bursa,,,Turkey,X,,,,,,,,
Dubai_UnitedArabEmirates,Dubai,,,United Arab Emirates,X,X,,,,,,,
Akron_Ohio_UnitedStates,Akron,,Ohio,United States,X,,,,,,,,
Albuquerque_NewMexico_UnitedStates,Albuquerque,,NewMexico,United States,X,,,,,,,X,
Allentown_Pennsylvania_UnitedStates,Allentown,,Pennsylvania,United States,X,,,,,,,,
Annapolis_Maryland_UnitedStates,Annapolis,,Maryland,United States,X,,,,,,,,
AnnArbor_Michigan_UnitedStates,AnnArbor,,Michigan,United States,X,,,,,,,,
Antioch_California_UnitedStates,Antioch,,California,United States,X,,,,,,,,
Atlanta_Georgia_UnitedStates,Atlanta,,Georgia,United States,X,,,,,,,X,
Austin_Texas_UnitedStates,Austin,,Texas,United States,X,,X,,X,,X,X,X
Bakersfield_California_UnitedStates,Bakersfield,,California,United States,X,,,,,,,X,
Baltimore_Maryland_UnitedStates,Baltimore,,Maryland,United States,X,,X,,X,X,X,X,X
Birmingham_Alabama_UnitedStates,Birmingham,,Alabama,United States,X,,,,,,,,
Boston_Massachusetts_UnitedStates,Boston,,Massachusetts,United States,X,,,,,,,X,
Bridgeport_Connecticut_UnitedStates,Bridgeport,,Connecticut,United States,X,,,,,,,,
Budapest_Hungary,Budapest,,,United States,X,X,,,,,,,
Buffalo_NewYork_UnitedStates,Buffalo,,NewYork,United States,X,,,,,,,,
Charlotte_NorthCarolina_UnitedStates,Charlotte,,NorthCarolina,United States,X,,,,,,,X,
Chicago_Illinois_UnitedStates,Chicago,,Illinois,United States,X,,,,,,,X,
Cincinnati_Ohio_UnitedStates,Cincinnati,,Ohio,United States,X,,,,,,,,
Cleveland_Ohio_UnitedStates,Cleveland,,Ohio,United States,X,,,,,,,X,
ColoradoSprings_Colorado_UnitedStates,ColoradoSpring,,Colorado,United States,X,,,,,,,X,
Columbia_SouthCarolina_UnitedStates,Columbia,,SouthCarolina,United States,X,,,,,,,,
Columbus_Ohio_UnitedStates,Columbus,,Ohio,United States,X,,,,,,,X,
Concord_California_UnitedStates,Concord,,California,United States,X,,,,,,,,
CorpusChristi_Texas_UnitedStates,CorpusChristi,,Texas,United States,X,,,,,,,,
Dallas_Texas_UnitedStates,Dallas,,Texas,United States,X,,X,,X,X,X,X,X
Davenport_Iowa_UnitedStates,Davenport,,Iowa,United States,X,,,,,,,,
Dayton_Ohio_UnitedStates,Dayton,,Ohio,United States,X,,,,,,,,
Denver_Colorado_UnitedStates,Denver,,Colorado,United States,X,,X,,X,X,X,X,X
Detroit_Michigan_UnitedStates,Detroit,,Michigan,United States,X,,,,,,,X,
Dublin_California_UnitedStates,Dublin,,California,United States,X,,,,,,,,
Eugene-Springfield_Oregon_UnitedStates,Eugene-Springfield,,Oregon,United States,X,,,,,,,,
Fairfield_California_UnitedStates,Fairfield,,California,United States,X,,,,,,,,
FortWayne_Indiana_UnitedStates,FortWayne,,Indiana,United States,X,,,,,,,,
Fresno_California_UnitedStates,Fresno,,California,United States,X,,X,,X,X,X,X,X
GrandRapids_Michigan_UnitedStates,GrandRapids,,Michigan,United States,X,,,,,,,,
Greensboro_NorthCarolina_UnitedStates,Greensboro,,NorthCarolina,United States,X,,,,,,,,
Harrisburg_Pennsylvania_UnitedStates,Harrisburg,,Pennsylvania,United States,X,,,,,,,,
Hartford_Connecticut_UnitedStates,Hartford,,Connecticut,United States,X,,X,,X,X,X,X,X
Honolulu_Hawaii_UnitedStates,Honolulu,,Hawaii,United States,X,,X,,X,X,X,X,X
Houston_Texas_UnitedStates,Houston,,Texas,United States,X,,X,,X,,X,X,X
Indianapolis_Indiana_UnitedStates,Indianapolis,,Indiana,United States,X,,,,,,,X,
IndianWells_California_UnitedStates,IndianWells,,California,United States,X,,,,,,,,
Jacksonville_Florida_UnitedStates,Jacksonville,,Florida,United States,X,,,,,,,X,
KansasCity_Missouri_UnitedStates,KansasCity,,Missouri,United States,X,,,,,,,X,
Lansing_Michigan_UnitedStates,Lansing,,Michigan,United States,X,,,,,,,,
LasVegas_Nevada_UnitedStates,LasVegas,,Nevada,United States,X,,,,,,,X,
Lexington_Kentucky_UnitedStates,Lexington,,Kentucky,United States,X,,,,,,,,
LosAngeles_California_UnitedStates,LosAngeles,,California,United States,X,,X,,X,X,X,X,X
Louisville_Kentucky_UnitedStates,Louisville,,Kentucky,United States,X,,,,,,,X,
Madison_Wisconsin_UnitedStates,Madison,,Wisconsin,United States,X,,,,,,,,
Memphis_Tennessee_UnitedStates,Memphis,,Tennessee,United States,X,,,,,,,X,
Miami_Florida_UnitedStates,Miami,,Florida,United States,X,,,,,,,X,
Milwaukee_Wisconsin_UnitedStates,Milwaukee,,Wisconsin,United States,X,,X,,X,X,X,X,X
Minneapolis_Minnesota_UnitedStates,Minneapolis,,Minnesota,United States,X,,,,,,,X,
Modesto_California_UnitedStates,Modesto,,California,United States,X,,,,,,,,
Monterey_California_UnitedStates,Monterey,,California,United States,X,,X,,X,X,X,X,X
Murrieta_California_UnitedStates,Murrieta,,California,United States,X,,,,,,,,
Naples_Florida_UnitedStates,Naples,,Florida,United States,X,,,,,,,,
Nashville_Tennessee_UnitedStates,Nashville,,Tennessee,United States,X,,,,,,,X,
NewHaven_Connecticut_UnitedStates,NewHaven,,Connecticut,United States,X,,X,,X,X,X,X,X
NewOrleans_Louisiana_UnitedStates,NewOrleans,,Louisiana,United States,X,,,,,,,X,
NewYorkCity_NewYork_UnitedStates,NewYorkCity,,NewYork,United States,X,,,X,,,,X,
OklahomaCity_Oklahoma_UnitedStates,OklahomaCity,,Oklahoma,United States,X,,,,,,,X,
Omaha_Nebraska_UnitedStates,Omaha,,Nebraska,United States,X,,,,,,,X,
Orlando_Florida_UnitedStates,Orlando,,Florida,United States,X,,,,,,,,
Palmdale-Lancaster_California_UnitedStates,Palmdale-Lancaster,,California,United States,X,,,,,,,,
Philadelphia_Pennsylvania_UnitedStates,Philadelphia,,Pennsylvania,United States,X,,X,,X,X,X,X,X
Phoenix_Arizona_UnitedStates,Phoenix,,Arizona,United States,X,,,,,,,X,
Pittsburgh_Pennsylvania_UnitedStates,Pittsburgh,,Pennsylvania,United States,X,,,,,,,,
Portland_Oregon_UnitedStates,Portland,,Oregon,United States,X,,,,,,,X,
Prague_Czechia,Prague,,,United States,X,X,,,,,,,
Providence_RhodeIsland_UnitedStates,Providence,,RhodeIsland,United States,X,,X,,X,X,X,X,X
Raleigh_NorthCarolina_UnitedStates,Raleigh,,NorthCarolina,United States,X,,,,,,,X,
Reading_Pennsylvania_UnitedStates,Reading,,Pennsylvania,United States,X,,,,,,,,
Reno-Sparks_Nevada_UnitedStates,Reno-Sparks,,Nevada,United States,X,,,,,,,,
Richmond_Virginia_UnitedStates,Richmond,,Virginia,United States,X,,X,,X,,X,,X
Rochester_NewYork_UnitedStates,Rochester,,NewYork,United States,X,,,,,,,,
Sacramento_California_UnitedStates,Sacramento,,California,United States,X,,X,,X,X,X,X,X
SaintPetersburg-Clearwater_Florida_UnitedStates,SaintPetersburg-Clearwater,,Florida,United States,X,,,,,,,,
SaltLakeCity_Utah_UnitedStates,SaltLakeCity,,Utah,United States,X,,,,,,,X,
SanFrancisco_California_UnitedStates,San Francisco,,California,United States,X,,X,,X,X,X,X,X
SanFrancisco-BayArea_California_UnitedStates,San Francisco Bay Area,,California,United States,X,,,,,,,,
SanAntonio_Texas_UnitedStates,SanAntonio,,Texas,United States,X,,,,,,,X,
SanDiego_California_UnitedStates,SanDiego,,California,United States,X,,X,,X,X,X,X,X
SantaBarbara_California_UnitedStates,SantaBarbara,,California,United States,X,,X,,X,X,X,X,X
SantaClarita_California_UnitedStates,SantaClarita,,California,United States,X,,,,,,,,
SantaRosa_California_UnitedStates,SantaRosa,,California,United States,X,,,,,,,,
Seattle_Washington_UnitedStates,Seattle,,Washington,United States,X,,,,,,,X,
Spokane_Washington_UnitedStates,Spokane,,Washington,United States,X,,X,,X,X,X,X,X
Springfield_Massachusetts_UnitedStates,Springfield,,Massachusetts,United States,X,,,,,,,,
St.Louis_Missouri_UnitedStates,St.Louis,,Missouri,United States,X,,X,,,,,,
Stockton_California_UnitedStates,Stockton,,California,United States,X,,,,,,,,
Syracuse_NewYork_UnitedStates,Syracuse,,NewYork,United States,X,,,,,,,,
Tacoma_Washington_UnitedStates,Tacoma,,Washington,United States,X,,,,,,,,
Tampa_Florida_UnitedStates,Tampa,,Florida,United States,X,,,,,,,X,
Toledo_Ohio_UnitedStates,Toledo,,Ohio,United States,X,,,,,,,,
Tucson_Arizona_UnitedStates,Tucson,,Arizona,United States,X,,,,,,,X,
Tulsa_Oklahoma_UnitedStates,Tulsa,,Oklahoma,United States,X,,X,,X,X,X,X,X
Ventura_California_UnitedStates,Ventura,,California,United States,X,,X,,X,X,X,X,X
Victorville-Hesperia_California_UnitedStates,Victorville-Hesperia,,California,United States,X,,,,,,,,
VirginiaBeach_Virginia_UnitedStates,VirginiaBeach,,Virginia,United States,X,,X,,X,X,X,X,X
Waipahu_Hawaii_UnitedStates,Waipahu,,Hawaii,United States,X,,,,,,,,
VilaNovadeGaia_Portugal,VilaNovadeGaia,,,Portugal,X,,,,,,,,
Barrington_Bristol_RhodeIsland_UnitedStates,Barrington,Bristol,RhodeIsland,UnitedStates,,,,,,,,,
Bristol_Bristol_RhodeIsland_UnitedStates,Bristol,Bristol,RhodeIsland,UnitedStates,,,X,,,,,,
Burrillville_Providence_RhodeIsland_UnitedStates,Burrillville,Providence,RhodeIsland,UnitedStates,,,,,,,,,
CentralFalls_Providence_RhodeIsland_UnitedStates,CentralFalls,Providence,RhodeIsland,UnitedStates,,,,,,,,,
Charlestown_Washington_RhodeIsland_UnitedStates,Charlestown,Washington,RhodeIsland,UnitedStates,,,,,,,,,
Coventry_Kent_RhodeIsland_UnitedStates,Coventry,Kent,RhodeIsland,UnitedStates,,,,,,,,,
Cranston_Providence_RhodeIsland_UnitedStates,Cranston,Providence,RhodeIsland,UnitedStates,,,,,,,,,
Cumberland_Providence_RhodeIsland_UnitedStates,Cumberland,Providence,RhodeIsland,UnitedStates,,,,,,,,,
DetroitCity_Wayne_Michigan_UnitedStates,DetroitCity,Wayne,Michigan,UnitedStates,,,,,,,,,
EastGreenwich_Kent_RhodeIsland_UnitedStates,EastGreenwich,Kent,RhodeIsland,UnitedStates,,,,,,,,,
EastProvidence_Providence_RhodeIsland_UnitedStates,EastProvidence,Providence,RhodeIsland,UnitedStates,,,,,,,,,
Exeter_Washington_RhodeIsland_UnitedStates,Exeter,Washington,RhodeIsland,UnitedStates,,,,,,,,,
Foster_Providence_RhodeIsland_UnitedStates,Foster,Providence,RhodeIsland,UnitedStates,,,,,,,,,
Glocester_Providence_RhodeIsland_UnitedStates,Glocester,Providence,RhodeIsland,UnitedStates,,,,,,,,,
Hopkinton_Washington_RhodeIsland_UnitedStates,Hopkinton,Washington,RhodeIsland,UnitedStates,,,,,,,,,
Jamestown_Newport_RhodeIsland_UnitedStates,Jamestown,Newport,RhodeIsland,UnitedStates,,,,,,,,,
Johnston_Providence_RhodeIsland_UnitedStates,Johnston,Providence,RhodeIsland,UnitedStates,,,,,,,,,
Lincoln_Providence_RhodeIsland_UnitedStates,Lincoln,Providence,RhodeIsland,UnitedStates,,,,,,,,,
LittleCompton_Newport_RhodeIsland_UnitedStates,LittleCompton,Newport,RhodeIsland,UnitedStates,,,,,,,,,
Middletown_Newport_RhodeIsland_UnitedStates,Middletown,Newport,RhodeIsland,UnitedStates,,,,,,,,,
Narragansett_Washington_RhodeIsland_UnitedStates,Narragansett,Washington,RhodeIsland,UnitedStates,,,,,,,,,
Newport_Newport_RhodeIsland_UnitedStates,Newport,Newport,RhodeIsland,UnitedStates,,,X,,,,,,
NewShoreham_Washington_RhodeIsland_UnitedStates,NewShoreham,Washington,RhodeIsland,UnitedStates,,,,,,,,,
NorthKingstown_Washington_RhodeIsland_UnitedStates,NorthKingstown,Washington,RhodeIsland,UnitedStates,,,,,,,,,
NorthProvidence_Providence_RhodeIsland_UnitedStates,NorthProvidence,Providence,RhodeIsland,UnitedStates,,,,,,,,,
NorthSmithfield_Providence_RhodeIsland_UnitedStates,NorthSmithfield,Providence,RhodeIsland,UnitedStates,,,,,,,,,
Pawtucket_Providence_RhodeIsland_UnitedStates,Pawtucket,Providence,RhodeIsland,UnitedStates,,,,,,,,,
Portsmouth_Newport_RhodeIsland_UnitedStates,Portsmouth,Newport,RhodeIsland,UnitedStates,,,,,,,,,
Providence_Providence_RhodeIsland_UnitedStates,Providence,Providence,RhodeIsland,UnitedStates,,,X,,,,,,
Richmond_Washington_RhodeIsland_UnitedStates,Richmond,Washington,RhodeIsland,UnitedStates,,,,,,,,,
Scituate_Providence_RhodeIsland_UnitedStates,Scituate,Providence,RhodeIsland,UnitedStates,,,,,,,,,
Smithfield_Providence_RhodeIsland_UnitedStates,Smithfield,Providence,RhodeIsland,UnitedStates,,,,,,,,,
SouthKingstown_Washington_RhodeIsland_UnitedStates,SouthKingstown,Washington,RhodeIsland,UnitedStates,,,,,,,,,
Tiverton_Newport_RhodeIsland_UnitedStates,Tiverton,Newport,RhodeIsland,UnitedStates,,,,,,,,,
Warren_Bristol_RhodeIsland_UnitedStates,Warren,Bristol,RhodeIsland,UnitedStates,,,,,,,,,
Warwick_Kent_RhodeIsland_UnitedStates,Warwick,Kent,RhodeIsland,UnitedStates,,,,,,,,,
Westerly_Washington_RhodeIsland_UnitedStates,Westerly,Washington,RhodeIsland,UnitedStates,,,,,,,,,
WestGreenwich_Kent_RhodeIsland_UnitedStates,WestGreenwich,Kent,RhodeIsland,UnitedStates,,,,,,,,,
WestWarwick_Kent_RhodeIsland_UnitedStates,WestWarwick,Kent,RhodeIsland,UnitedStates,,,,,,,,,
Woonsocket_Providence_RhodeIsland_UnitedStates,Woonsocket,Providence,RhodeIsland,UnitedStates,,,,,,,,,
FortWorth_Texas_UnitedStates,FortWorth,,Texas,UnitedStates,X,,,,,,,X,
SanJose_California_UnitedStates,SanJose,,California,UnitedStates,X,,,,,,,X,
Oakland_California_UnitedStates,Oakland,,California,UnitedStates,X,,,,,,,X,
