Version #9: 8/7/2020,,,,,,,,,,,,,,,,,,,,,,
"Description: Countries with accessible data (denoted with ""X"") from the datasets listed in the column headings",,,,,,,,,,,,,,,,,,,,,,
Country id,JHU,COVID Tracking Project,NYT: Case Counts,ECDC,WHO,Apple,University of Washington,COVID19 India,Dipartimento della Protezione Civile,South Korea Dataset,The World Bank: Global Health Statistics,US Census Bureau: Demographic Estimates,Google,Corona Data Scraper,NYT: All Cause Mortality,University of Oxford OxCGRT,US Census Bureau: International Census,Swayable,US Bureau of Labor Statistics,Bureau of Economic Analysis,Opportunity Insights,US CDC: Select Demographic Characteristics
UnitedStates,X,,X,X,X,X,X,,,,X,X,X,X,X,X,X,X,,X,X,X
China,X,,X,X,X,,,,,,X,,,X,,X,X,,,,,
Afghanistan,X,,X,X,X,,,,,,X,,X,X,,X,X,,,,,
Albania,X,,X,X,X,X,,,,,X,,,X,,X,X,,,,,
Algeria,X,,X,X,X,,,,,,X,,,X,,X,X,,,,,
Andorra,X,,X,X,X,,,,,,X,,,X,,X,X,,,,,
Angola,X,,X,X,X,,,,,,X,,X,X,,X,X,,,,,
AntiguaandBarbuda,X,,X,X,X,,,,,,X,,X,X,,,X,,,,,
Argentina,X,,X,X,X,X,,,,,X,,X,X,,X,X,,,,,
Armenia,X,,X,X,X,,,,,,X,,,X,,,X,,,,,
Australia,X,,X,X,X,X,X,,,,X,,X,X,,X,X,,,,,
Austria,X,,X,X,X,X,X,,,,X,,X,X,X,X,X,,,,,
Azerbaijan,X,,X,X,X,,,,,,X,,,X,,X,X,,,,,
Bahamas,X,,X,X,X,,,,,,X,,X,X,,,X,,,,,
Bahrain,X,,X,X,X,,,,,,X,,X,X,,X,X,,,,,
Bangladesh,X,,X,X,X,,,,,,X,,X,X,,X,X,,,,,
Barbados,X,,X,X,X,,,,,,X,,X,X,,X,X,,,,,
Belarus,X,,X,X,X,,,,,,X,,X,X,,X,X,,,,,
Belgium,X,,X,X,X,X,X,,,,X,,X,X,X,X,X,,,,,
Benin,X,,X,X,X,,,,,,X,,X,X,,X,X,,,,,
Belize,X,,X,X,X,,,,,,X,,X,X,,X,X,,,,,
Bhutan,X,,X,X,,,,,,,X,,,X,,X,X,,,,,
Bolivia,X,,X,X,X,,,,,,X,,X,X,,X,X,,,,,
BosniaandHerzegovina,X,,X,X,X,,,,,,X,,X,X,,X,X,,,,,
Botswana,X,,X,X,X,,,,,,X,,X,X,,X,X,,,,,
Brazil,X,,X,X,X,X,,,,,X,,X,X,,X,X,,,,,
Brunei,X,,X,X,X,,,,,,X,,,X,,X,X,,,,,
Bulgaria,X,,X,X,X,X,X,,,,X,,X,X,,X,X,,,,,
BurkinaFaso,X,,X,X,X,,,,,,X,,X,X,,X,X,,,,,
Burundi,X,,X,X,,,,,,,X,,,X,,X,X,,,,,
CaboVerde,X,,X,X,X,,,,,,X,,X,X,,X,X,,,,,
Cambodia,X,,X,X,,X,,,,,X,,X,X,,X,X,,,,,
Cameroon,X,,X,X,X,,,,,,X,,X,X,,X,X,,,,,
Canada,X,,X,X,X,X,X,,,,X,,X,X,,X,X,,,,,
CentralAfricanRepublic,X,,X,X,,,,,,,X,,,X,,X,X,,,,,
Chad,X,,X,X,,,,,,,X,,,X,,X,X,,,,,
Chile,X,,X,X,X,X,,,,,X,,X,X,X,X,X,,,,,
Colombia,X,,X,X,X,X,,,,,X,,X,X,,X,X,,,,,
Congo(Brazzaville),X,,X,X,X,,,,,,X,,,X,,X,X,,,,,
Congo(Kinshasa),X,,X,X,X,,,,,,X,,,X,,X,X,,,,,
CostaRica,X,,X,X,X,,,,,,X,,X,X,,X,X,,,,,
Croatia,X,,X,X,X,X,X,,,,X,,X,X,,X,X,,,,,
Coted'Ivoire,X,,X,X,X,,,,,,X,,X,X,,X,X,,,,,
Cuba,X,,X,X,X,,,,,,X,,,X,,X,X,,,,,
Cyprus,X,,X,X,X,,X,,,,X,,,X,,X,X,,,,,
Czechia,X,,X,X,X,X,X,,,,X,,X,X,,X,X,,,,,
Denmark,X,,X,X,X,X,X,,,,X,,X,X,X,X,X,,,,,
Djibouti,X,,X,X,X,,,,,,X,,,X,,X,X,,,,,
Dominica,X,,X,X,,,,,,,X,,,X,,X,X,,,,,
DominicanRepublic,X,,X,X,X,,,,,,X,,X,X,,X,X,,,,,
Ecuador,X,,X,X,X,,,,,,X,,X,X,X,X,X,,,,,
Egypt,X,,X,X,X,X,X,,,,X,,X,X,,X,X,,,,,
ElSalvador,X,,X,X,X,,,,,,X,,X,X,,X,X,,,,,
EquatorialGuinea,X,,X,X,,,,,,,X,,,X,,,X,,,,,
Eritrea,X,,X,X,,,,,,,X,,,X,,X,X,,,,,
Estonia,X,,X,X,X,X,X,,,,X,,X,X,,X,X,,,,,
Eswatini,X,,X,X,,,,,,,X,,,X,,X,X,,,,,
Ethiopia,X,,X,X,X,,,,,,X,,,X,,X,X,,,,,
Fiji,X,,X,X,,,,,,,X,,X,X,,X,X,,,,,
Finland,X,,X,X,X,X,X,,,,X,,X,X,X,X,X,,,,,
France,X,,X,X,X,X,X,,,,X,,X,X,X,X,X,,,,,
Gabon,X,,X,X,X,,,,,,X,,X,X,,X,X,,,,,
Gambia,X,,X,X,X,,,,,,X,,,X,,X,X,,,,,
Georgia,X,,X,X,X,,X,,,,X,,X,X,,X,X,,,,,
Germany,X,,X,X,X,X,X,,,,X,,X,X,X,X,X,,,,,
Ghana,X,,X,X,X,,,,,,X,,X,X,,X,X,,,,,
Greece,X,,X,X,X,X,X,,,,X,,X,X,,X,X,,,,,
Grenada,X,,X,X,,,,,,,X,,,X,,,X,,,,,
Guatemala,X,,X,X,X,,,,,,X,,X,X,,X,X,,,,,
Guinea,X,,X,X,,,,,,,X,,,X,,X,X,,,,,
Guinea-Bissau,X,,X,X,,,,,,,X,,X,X,,,X,,,,,
Guyana,X,,X,X,X,,,,,,X,,,X,,X,X,,,,,
Guernsey,,,X,X,X,X,,,,,,,,,,,X,,,,,
Haiti,X,,X,X,X,,,,,,X,,X,X,,X,X,,,,,
HolySee,X,,X,X,,,,,,,,,,X,,,,,,,,
Honduras,X,,X,X,X,,,,,,X,,X,X,,X,X,,,,,
Hungary,X,,X,X,X,X,X,,,,X,,X,X,,X,X,,,,,
Iran,X,,X,X,X,,X,,,,X,,,X,,X,X,,,,,
Iraq,X,,X,X,X,,,,,,X,,X,X,,X,X,,,,,
Iceland,X,,X,X,X,X,X,,,,X,,,X,,X,X,,,,,
Indonesia,X,,X,X,X,X,,,,,X,,X,X,,X,X,,,,,
India,X,,X,X,X,X,,X,,,X,,X,X,,X,X,,,,,
Ireland,X,,X,X,X,X,X,,,,X,,X,X,,X,X,,,,,
Israel,X,,X,X,X,X,X,,,,X,,X,X,X,X,X,,,,,
Italy,X,,X,X,X,X,X,,X,,X,,X,X,X,X,X,,,,,
Jamaica,X,,X,X,X,,,,,,X,,X,X,,X,X,,,,,
Japan,X,,X,X,X,X,,,,,X,,X,X,,X,X,,,,,
Jersey,,,X,X,X,X,,,,,,,,,,,X,,,,,
Jordan,X,,X,X,X,,,,,,X,,X,X,,X,X,,,,,
Kazakhstan,X,,X,X,X,,,,,,X,,X,X,,X,X,,,,,
Kenya,X,,X,X,X,,,,,,X,,X,X,,X,X,,,,,
KoreaSouth,X,,X,X,X,X,X,,,X,X,,X,X,,X,X,,,,,
Kosovo,X,,X,X,X,,,,,,X,,,X,,X,X,,,,,
Kuwait,X,,X,X,X,,,,,,X,,X,X,,X,X,,,,,
Kyrgyzstan,X,,X,X,X,,,,,,X,,X,X,,X,X,,,,,
Laos,X,,X,X,,,,,,,,,X,X,,X,X,,,,,
Latvia,X,,X,X,X,X,X,,,,X,,X,X,,X,X,,,,,
Lebanon,X,,X,X,X,,,,,,X,,X,X,,X,X,,,,,
Liberia,X,,X,X,X,,,,,,X,,,X,,X,X,,,,,
Libya,X,,X,X,X,,,,,,X,,X,X,,X,X,,,,,
Liechtenstein,X,,X,X,X,,,,,,X,,X,X,,,X,,,,,
Lithuania,X,,X,X,X,X,X,,,,X,,X,X,,X,X,,,,,
Luxembourg,X,,X,X,X,X,X,,,,X,,X,X,,X,X,,,,,
Madagascar,X,,X,X,,,,,,,X,,,X,,X,X,,,,,
Malawi,X,,X,X,X,,,,,,X,,,X,,X,X,,,,,
Malaysia,X,,X,X,X,X,X,,,,X,,X,X,,X,X,,,,,
Maldives,X,,X,X,,,,,,,X,,,X,,,X,,,,,
Mali,X,,X,X,X,,,,,,X,,X,X,,X,X,,,,,
Malta,X,,X,X,X,,,,,,X,,X,X,,,X,,,,,
Mauritania,X,,X,X,X,,,,,,X,,,X,,X,X,,,,,
Mauritius,X,,X,X,X,,,,,,X,,X,X,,X,X,,,,,
Mexico,X,,X,X,X,X,,,,,X,,X,X,,X,X,,,,,
Moldova,X,,X,X,X,,,,,,X,,X,X,,X,X,,,,,
Monaco,X,,X,X,,,,,,,X,,,X,,,X,,,,,
Mongolia,X,,X,X,,,,,,,X,,X,X,,X,X,,,,,
Montenegro,X,,X,X,X,,,,,,X,,,X,,,X,,,,,
Morocco,X,,X,X,X,X,,,,,X,,,X,,X,X,,,,,
Mozambique,X,,X,X,,,,,,,X,,X,X,,X,X,,,,,
MSZaandam,X,,X,,,,,,,,,,,,,,,,,,,
Myanmar,X,,X,X,X,,,,,,X,,X,X,,X,X,,,,,
Namibia,X,,X,X,,,,,,,X,,X,X,,X,X,,,,,
Nepal,X,,X,X,,,,,,,X,,X,X,,X,X,,,,,
Netherlands,X,,X,X,X,X,X,,,,X,,X,X,X,X,X,,,,,
NewZealand,X,,X,X,X,X,X,,,,X,,X,X,,X,X,,,,,
Nicaragua,X,,X,X,X,,,,,,X,,X,X,,X,X,,,,,
Niger,X,,X,X,X,,,,,,X,,X,X,,X,X,,,,,
Nigeria,X,,X,X,X,,,,,,X,,X,X,,X,X,,,,,
NorthMacedonia,X,,X,X,X,,,,,,X,,X,X,,,X,,,,,
Norway,X,,X,X,X,X,X,,,,X,,X,X,X,X,X,,,,,
Oman,X,,X,X,X,,,,,,X,,X,X,,X,X,,,,,
Pakistan,X,,X,X,X,,,,,,X,,X,X,,X,X,,,,,
Panama,X,,X,X,X,,,,,,X,,X,X,,X,X,,,,,
PapuaNewGuinea,X,,X,X,,,,,,,X,,X,X,,X,X,,,,,
Paraguay,X,,X,X,X,,,,,,X,,X,X,,X,X,,,,,
Peru,X,,X,X,X,,,,,,X,,X,X,X,X,X,,,,,
Philippines,X,,X,X,X,X,X,,,,X,,X,X,,X,X,,,,,
Poland,X,,X,X,X,X,X,,,,X,,X,X,,X,X,,,,,
Portugal,X,,X,X,X,X,X,,,,X,,X,X,X,X,X,,,,,
Qatar,X,,X,X,X,,,,,,X,,X,X,,X,X,,,,,
Romania,X,,X,X,X,X,X,,,,X,,X,X,,X,X,,,,,
Rwanda,X,,X,X,,,,,,,X,,X,X,,X,X,,,,,
Russia,X,,X,X,X,X,X,,,,X,,,X,,X,X,,,,,
SaintLucia,X,,X,X,,,,,,,X,,,X,,,X,,,,,
SaintVincentandtheGrenadines,X,,X,X,,,,,,,X,,,X,,,X,,,,,
SaintKittsandNevis,X,,X,X,,,,,,,X,,,X,,,X,,,,,
SanMarino,X,,X,X,X,,,,,,X,,,X,,X,X,,,,,
SaudiArabia,X,,X,X,X,X,,,,,X,,X,X,,X,X,,,,,
Senegal,X,,X,X,X,,,,,,X,,X,X,,X,X,,,,,
Serbia,X,,X,X,X,X,X,,,,X,,X,X,,X,X,,,,,
Seychelles,X,,X,X,,,,,,,X,,,X,,X,X,,,,,
Singapore,X,,X,X,X,X,,,,,X,,X,X,,X,X,,,,,
Slovakia,X,,X,X,X,X,X,,,,X,,X,X,,X,X,,,,,
Slovenia,X,,X,X,X,,X,,,,X,,X,X,,X,X,,,,,
Somalia,X,,X,X,X,,,,,,X,,,X,,X,X,,,,,
SouthAfrica,X,,X,X,X,X,,,,,X,,X,X,X,X,X,,,,,
Spain,X,,X,X,X,X,X,,,,X,,X,X,X,X,X,,,,,
SriLanka,X,,X,X,X,,,,,,X,,X,X,,X,X,,,,,
Sudan,X,,X,X,X,,,,,,X,,,X,,X,X,,,,,
SouthSudan,X,,X,X,,,,,,,X,,,X,,X,X,,,,,
Suriname,X,,X,X,X,,,,,,X,,,X,,X,X,,,,,
Sweden,X,,X,X,X,X,X,,,,X,,X,X,X,X,X,,,,,
Switzerland,X,,X,X,X,X,X,,,,X,,X,X,X,X,X,,,,,
Syria,X,,X,X,X,,,,,,X,,,X,,X,X,,,,,
SierraLeone,X,,X,X,,,,,,,X,,,X,,X,X,,,,,
SaoTomeandPrincipe,X,,X,X,,,,,,,X,,,X,,,X,,,,,
Taiwan*,X,,X,X,X,X,,,,,,,X,X,,X,X,,,,,
Tanzania,X,,X,X,X,,,,,,X,,X,X,,X,X,,,,,
Timor-Leste,X,,X,X,,,,,,,X,,,X,,X,X,,,,,
Thailand,X,,X,X,X,X,,,,,X,,X,X,X,X,X,,,,,
Togo,X,,X,X,X,,,,,,X,,X,X,,X,X,,,,,
TrinidadandTobago,X,,X,X,X,,,,,,X,,X,X,,X,X,,,,,
Tunisia,X,,X,X,X,,,,,,X,,,X,,X,X,,,,,
Turkey,X,,X,X,X,X,X,,,,X,,X,X,,X,X,,,,,
Uganda,X,,X,X,,,,,,,X,,X,X,,X,X,,,,,
Ukraine,X,,X,X,X,X,X,,,,X,,,X,,X,X,,,,,
UnitedArabEmirates,X,,X,X,X,X,,,,,X,,X,X,,X,X,,,,,
UnitedKingdom,X,,X,X,X,X,X,,,,X,,X,X,X,X,X,,,,,
Uruguay,X,,X,X,X,X,,,,,X,,X,X,,X,X,,,,,
Uzbekistan,X,,X,X,X,,,,,,X,,,X,,X,X,,,,,
Venezuela,X,,X,X,X,,,,,,X,,X,X,,X,X,,,,,
Vietnam,X,,X,X,,X,,,,,X,,X,X,,X,X,,,,,
WestBankandGaza,X,,X,X,X,,,,,,X,,,X,,X,,,,,,
WesternSahara,X,,X,,,,,,,,,,,X,,,X,,,,,
Yemen,X,,X,X,,,,,,,X,,X,X,,X,X,,,,,
Zambia,X,,X,X,X,,,,,,X,,X,X,,X,X,,,,,
Zimbabwe,X,,X,X,X,,,,,,X,,X,X,,X,X,,,,,
Comoros,,,X,,,,,,,,,,,X,,,X,,,,,
Lesotho,,,X,,,,,,,,,,,X,,X,X,,,,,
NorthernMarianaIslands,,,X,,,,,,,,,,,X,,,,,,,,
Tajikistan,,,X,,,,,,,,,,X,X,,X,X,,,,,
